{
  "photos": {
    "page": 22,
    "pages": 4748,
    "perpage": 100,
    "total": "474770",
    "photo": [
      {
        "id": "48369820566",
        "owner": "144329121@N08",
        "secret": "fccd90fa88",
        "server": "65535",
        "farm": 66,
        "title": "This image is taken from Page 164 of The development of the human body : a manual of human embryology",
        "ispublic": 1,
        "isfriend": 0,
        "isfamily": 0
      },
      {
        "id": "48369822221",
        "owner": "144329121@N08",
        "secret": "0dff9d390f",
        "server": "65535",
        "farm": 66,
        "title": "This image is taken from Page 154 of The development of the human body : a manual of human embryology",
        "ispublic": 1,
        "isfriend": 0,
        "isfamily": 0
      },
      {
        "id": "48369952757",
        "owner": "144329121@N08",
        "secret": "ce88e85b0a",
        "server": "65535",
        "farm": 66,
        "title": "This image is taken from Page 155 of The development of the human body : a manual of human embryology",
        "ispublic": 1,
        "isfriend": 0,
        "isfamily": 0
      },
      {
        "id": "48369952567",
        "owner": "144329121@N08",
        "secret": "a4a3071a24",
        "server": "65535",
        "farm": 66,
        "title": "This image is taken from Page 156 of The development of the human body : a manual of human embryology",
        "ispublic": 1,
        "isfriend": 0,
        "isfamily": 0
      }]}

}